"Kód okresu","Názov okresu","Počet voleb. okrskov","Počet voličov zapísaných v zoznamoch voličov","Počet voličov, ktorí sa zúčastnili na hlasovaní","Počet voličov, ktorí zaslali návratnú obálku z cudziny","Počet voličov, ktorí hlasovali osobne","Počet platných hlasov spolu",EDS,Únia,SRK,Paliho Kapurková,SaS,SDĽ,SMK - MKP,ĽS - HZDS,KSS,SNS,ND,ZRS,KDH,ĽSNS,SDKÚ - DS,AZEN,SMER,MOST - HÍD
101,Bratislava I,34,"38,113","25,372",168,"25,188","25,045",42,173,14,118,"4,159",323,202,631,80,700,65,9,"2,739",95,"8,161",24,"4,738","2,772"
102,Bratislava II,107,"97,490","62,356",213,"62,094","61,750",104,682,18,373,"10,592","1,077",622,"1,753",237,"2,208",163,24,"4,666",345,"17,742",54,"15,136","5,954"
103,Bratislava III,64,"54,886","36,477",137,"36,323","36,097",61,303,10,279,"6,189",719,174,"1,086",173,"1,454",109,29,"3,090",209,"10,349",45,"9,310","2,508"
104,Bratislava IV,82,"84,085","54,136",270,"53,806","53,615",92,617,4,363,"10,257","1,014",183,"1,309",185,"1,765",144,41,"4,699",313,"15,738",79,"12,888","3,924"
105,Bratislava V,107,"105,818","64,554",287,"64,229","64,110",111,700,24,552,"12,219","1,433",425,"1,497",262,"2,325",186,43,"4,530",474,"18,882",82,"15,232","5,133"
106,Malacky,51,"57,094","31,023",46,"30,962","30,580",78,277,24,166,"5,741",896,10,994,266,"1,362",69,52,"2,270",274,"6,823",31,"10,437",810
107,Pezinok,46,"48,839","30,802",77,"30,713","30,470",51,278,8,208,"5,833",765,24,974,163,"1,802",131,41,"2,504",263,"6,792",16,"9,693",924
108,Senec,53,"52,499","34,225",88,"34,124","33,823",90,258,8,187,"5,524",644,"1,563",813,202,"1,321",98,20,"2,325",178,"8,059",21,"6,841","5,671"
201,Dunajská Streda,122,"96,821","65,425",53,"65,302","64,681",139,92,54,93,"1,938",360,"21,262",463,76,285,52,22,480,65,"4,019",16,"2,356","32,909"
202,Galanta,83,"78,269","47,409",51,"47,293","46,735",156,198,48,183,"4,060",862,"6,621","1,391",300,"1,626",196,72,"1,603",329,"5,212",26,"10,122","13,730"
203,Hlohovec,45,"37,138","21,632",23,"21,578","21,370",54,120,12,114,"2,668",521,2,993,191,"1,237",217,48,"2,179",343,"2,788",14,"9,598",271
204,Piešťany,63,"53,690","31,973",71,"31,895","31,615",70,157,9,203,"4,771",678,8,"1,539",248,"2,046",340,40,"3,137",423,"5,488",17,"11,772",669
205,Senica,53,"49,760","25,945",29,"25,882","25,571",70,212,23,157,"3,714",807,9,"1,275",305,"1,108",277,57,"2,602",250,"4,550",27,"9,754",374
206,Skalica,43,"38,198","19,517",16,"19,479","19,113",57,118,27,61,"3,232",429,5,795,239,536,641,67,"2,111",203,"4,744",7,"5,588",253
207,Trnava,118,"105,437","63,367",104,"63,223","62,558",187,326,30,404,"9,185","1,736",27,"2,444",379,"3,151",902,87,"7,164",817,"10,366",69,"24,100","1,184"
301,Bánovce nad Bebravou,62,"30,759","18,081",24,"18,045","17,860",38,95,19,81,"1,478",580,5,"1,045",236,"1,090",73,39,"1,595",310,"1,726",12,"9,291",147
302,Ilava,61,"49,757","30,209",46,"30,133","29,794",72,192,14,175,"3,447",935,4,"1,941",335,"2,027",92,74,"2,566",375,"3,581",11,"13,583",370
303,Myjava,32,"23,465","13,005",21,"12,979","12,826",17,107,4,82,"1,938",485,3,787,147,853,58,60,354,61,"2,128",8,"5,549",185
304,Nové Mesto nad Váhom,67,"51,888","30,582",53,"30,507","30,213",71,200,14,183,"3,824",904,11,"1,840",415,"1,854",195,68,"2,214",391,"4,663",26,"12,942",398
305,Partizánske,52,"38,727","22,783",38,"22,714","22,418",47,101,7,112,"2,562",653,5,"1,536",239,"1,507",38,56,"2,393",211,"2,508",9,"10,200",234
306,Považská Bystrica,68,"51,804","31,964",64,"31,884","31,613",49,171,6,179,"3,693",801,4,"1,719",278,"3,413",104,97,"2,465",407,"3,243",11,"14,691",282
307,Prievidza,138,"114,258","68,782",152,"68,549","67,845",136,546,20,370,"9,303","1,778",27,"3,190",702,"5,257",151,194,"3,853",685,"8,217",45,"32,475",896
308,Púchov,53,"36,684","22,467",48,"22,406","22,205",47,167,14,134,"2,514",557,8,"1,024",230,"1,747",48,121,"1,847",310,"2,584",11,"10,569",273
309,Trenčín,116,"93,410","58,743",108,"58,576","57,932",102,394,12,354,"8,214","1,463",8,"4,286",636,"3,072",254,125,"6,050",460,"9,318",35,"21,795","1,354"
401,Komárno,108,"87,081","52,282",46,"52,187","51,441",196,115,32,113,"2,511",432,"17,817",614,158,808,22,20,452,95,"4,415",30,"4,202","19,409"
402,Levice,156,"95,919","56,612",70,"56,517","55,795",280,305,92,240,"6,584","1,321","7,618","1,663",360,"2,055",214,147,"2,671",845,"6,947",79,"14,409","9,965"
403,Nitra,158,"134,085","81,314",150,"81,118","80,136",180,463,48,449,"8,582","1,902","1,693","3,304",429,"4,394",233,134,"6,089","1,124","12,805",37,"33,052","5,218"
404,Nové Zámky,142,"120,715","74,649",89,"74,514","73,586",221,257,81,271,"5,979","1,113","13,364","1,503",313,"3,221",106,72,"2,665",482,"7,524",124,"18,759","17,531"
405,Šaľa,42,"43,892","25,556",26,"25,520","25,206",78,119,39,107,"2,381",541,"3,952",518,129,"1,103",24,27,814,212,"3,506",9,"4,987","6,660"
406,Topoľčany,88,"60,897","37,239",35,"37,167","36,740",75,143,11,166,"3,389",853,3,"2,277",335,"2,116",56,87,"3,184",311,"3,492",25,"19,895",322
407,Zlaté Moravce,46,"34,907","22,085",27,"22,046","21,754",52,102,8,102,"2,035",524,35,"1,043",353,"1,621",53,106,"2,247",491,"2,042",15,"10,532",393
501,Bytča,34,"24,060","14,820",6,"14,809","14,604",30,52,2,49,"1,122",408,5,702,152,"2,280",28,27,"1,342",107,"1,114",4,"7,060",120
502,Čadca,79,"72,070","41,629",18,"41,565","40,867",87,168,13,133,"2,676",844,4,"3,036",347,"4,024",45,92,"2,891",424,"2,839",17,"22,847",380
503,Dolný Kubín,43,"30,658","18,525",49,"18,467","18,290",32,83,5,112,"2,778",467,9,640,175,928,28,65,"3,674",124,"2,572",18,"6,233",347
504,Kysucké Nové Mesto,27,"26,522","16,626",13,"16,592","16,336",35,53,4,72,"1,285",335,1,"1,045",153,"1,929",24,24,"1,172",209,"1,194",8,"8,626",167
505,Liptovský Mikuláš,95,"60,541","36,818",90,"36,703","36,314",87,313,31,242,"6,103","1,284",13,"1,190",410,"2,612",95,114,"2,071",641,"6,161",23,"14,344",580
506,Martin,103,"79,059","47,890",105,"47,755","47,260",72,340,36,304,"8,282","1,513",17,"1,694",535,"3,044",90,147,"2,846",392,"7,869",33,"19,235",811
507,Námestovo,40,"42,008","23,170",43,"23,109","22,765",55,66,6,68,"2,219",508,4,"1,048",70,"1,458",88,88,"5,689",122,"1,927",12,"9,141",196
508,Ružomberok,59,"47,788","28,911",54,"28,807","28,476",53,183,17,181,"3,439",716,12,975,338,"2,404",48,97,"4,614",244,"3,999",55,"10,680",421
509,Turčianske Teplice,32,"13,981","8,637",9,"8,615","8,510",31,65,3,67,"1,003",308,4,445,157,700,19,43,508,86,"1,027",10,"3,935",99
510,Tvrdošín,32,"26,598","17,104",33,"17,049","16,853",33,65,5,70,"2,073",380,2,891,58,"1,783",23,78,"4,003",137,"1,385",10,"5,692",165
511,Žilina,154,"127,404","81,549",183,"80,905","80,051",243,490,25,438,"11,162","1,823",16,"2,765",543,"8,804",128,141,"7,473",592,"11,578",23,"32,460","1,347"
601,Banská Bystrica,133,"91,590","57,041",254,"56,763","56,360",92,558,31,315,"10,283","1,549",35,"1,949",482,"2,281",237,362,"3,813","1,216","13,133",244,"18,297","1,483"
602,Banská Štiavnica,24,"13,588","8,070",15,"8,053","7,998",19,63,22,49,"1,064",282,7,381,112,450,21,35,722,150,"1,129",17,"3,268",207
603,Brezno,69,"51,629","28,922",59,"28,853","28,426",153,244,256,155,"4,103",863,12,"1,021",396,"1,932",58,142,"1,779","1,027","3,758",93,"12,036",398
604,Detva,46,"26,910","15,850",26,"15,808","15,566",44,112,57,67,"1,754",458,2,966,152,"1,056",48,66,"1,264",300,"1,502",28,"7,424",266
605,Krupina,46,"18,240","10,669",20,"10,642","10,529",62,92,30,51,"1,144",401,16,857,138,717,41,50,"1,073",150,"1,172",21,"4,333",181
606,Lučenec,96,"58,532","31,534",71,"31,452","30,970",191,171,115,123,"3,469",835,"3,882","1,377",349,"1,320",54,112,890,453,"3,828",89,"8,516","5,196"
607,Poltár,38,"18,112","10,190",6,"10,183","10,039",72,99,65,58,952,318,12,613,267,761,23,51,429,209,789,22,"5,136",163
608,Revúca,66,"31,367","17,864",17,"17,832","17,533",206,85,109,56,"1,063",348,"1,897","2,648",138,628,22,39,419,778,"1,392",120,"5,371","2,214"
609,Rimavská Sobota,151,"63,947","35,841",73,"35,750","35,178",477,153,706,113,"2,287",744,"6,911","1,797",317,"1,443",44,104,555,588,"3,004",66,"8,810","7,059"
610,Veľký Krtíš,85,"36,447","20,548",19,"20,515","20,221",143,227,88,79,"1,397",543,"3,578",913,183,770,45,51,529,275,"2,316",29,"5,931","3,124"
611,Zvolen,77,"55,421","33,994",91,"33,888","33,622",52,236,66,187,"5,846",977,24,"1,636",442,"1,604",111,160,"2,110",597,"6,399",79,"12,269",827
612,Žarnovica,33,"22,106","13,345",26,"13,303","13,176",34,124,11,82,"1,437",398,3,748,206,947,37,56,"1,283",330,"1,329",25,"5,909",217
613,Žiar nad Hronom,55,"38,613","23,493",38,"23,445","23,194",61,195,75,118,"3,603",750,19,"1,456",245,"1,416",51,65,"1,620",555,"3,309",99,"9,140",417
701,Bardejov,116,"58,377","32,368",83,"32,276","31,840",317,252,170,192,"2,906",806,19,"1,409",264,"1,076",52,119,"5,641",427,"3,647",45,"14,069",429
702,Humenné,89,"50,765","26,824",65,"26,750","26,404",96,201,78,584,"1,873",914,12,"1,213",314,"1,115",29,100,"4,027",202,"3,152",80,"11,964",450
703,Kežmarok,67,"47,986","24,750",56,"24,665","24,166",274,219,441,130,"2,381",593,18,"1,357",155,828,34,90,"4,323","1,207","3,733",36,"8,037",310
704,Levoča,44,"24,435","13,339",29,"13,305","13,063",72,67,59,73,"1,081",277,6,690,85,564,22,56,"2,660",364,"1,791",8,"4,928",260
705,Medzilaborce,30,"9,574","5,369",1,"5,363","5,281",41,27,11,85,227,156,2,357,123,126,8,100,233,36,397,10,"3,256",86
706,Poprad,89,"81,037","45,435",210,"45,216","44,816",245,291,231,346,"7,207","1,253",32,"1,556",364,"1,780",77,110,"5,132","1,123","8,841",106,"15,299",823
707,Prešov,180,"127,448","73,630",314,"73,272","72,514",450,"1,242",474,614,"9,307","1,872",41,"2,415",641,"2,394",155,129,"13,039","1,076","12,463",47,"24,398","1,757"
708,Sabinov,61,"40,521","21,758",43,"21,706","21,397",305,137,642,130,"1,872",564,15,801,150,895,42,111,"3,698",675,"2,256",15,"8,916",173
709,Snina,48,"29,944","14,713",9,"14,686","14,435",69,108,15,159,827,353,,681,207,595,12,55,"1,230",106,"1,246",14,"8,548",210
710,Stará Ľubovňa,61,"38,122","20,688",31,"20,645","20,200",161,105,58,78,"1,388",376,11,"1,223",197,698,30,59,"2,707",846,"2,220",25,"9,857",161
711,Stropkov,52,"16,061","8,904",27,"8,863","8,774",93,53,26,71,730,196,11,422,139,322,17,76,876,91,910,24,"4,612",105
712,Svidník,77,"25,672","14,045",33,"13,989","13,770",142,72,104,78,898,495,10,706,146,556,16,59,"1,196",175,"1,429",34,"7,481",173
713,Vranov nad Topľou,91,"58,896","30,437",52,"30,374","29,816",277,207,296,201,"1,672",660,9,"2,175",350,"1,316",47,103,"4,120",490,"2,517",142,"14,711",523
801,Gelnica,31,"23,819","12,437",18,"12,413","12,171",115,299,91,69,"1,002",556,13,882,160,638,29,48,"1,069",497,"1,332",11,"5,062",298
802,Košice I,57,"55,431","31,365",183,"31,151","30,975",99,292,76,243,"5,278",837,602,672,227,940,73,39,"2,803",296,"8,322",34,"7,227","2,915"
803,Košice II,58,"65,032","35,482",170,"35,266","35,080",163,306,247,275,"6,037",920,391,921,243,"1,009",99,39,"3,055",445,"8,376",50,"9,686","2,818"
804,Košice III,26,"25,413","12,707",60,"12,636","12,587",27,132,25,127,"2,168",369,117,303,99,410,37,31,"1,022",135,"2,882",14,"3,835",854
805,Košice IV,53,"46,831","26,143",131,"25,965","25,855",65,201,58,189,"3,678",648,443,646,228,759,68,48,"2,449",261,"6,045",28,"7,731","2,310"
806,Košice - okolie,142,"88,391","50,930",91,"50,792","49,935",408,379,352,309,"4,720","1,438","3,539","2,467",373,"1,629",201,108,"4,180",593,"7,172",47,"14,032","7,988"
807,Michalovce,130,"85,492","41,388",96,"41,268","40,588",367,223,183,221,"3,034",827,"2,657","1,974",575,"1,819",46,81,"3,443",521,"4,424",185,"16,588","3,420"
808,Rožňava,89,"48,545","29,415",47,"29,344","28,809",257,165,149,135,"2,183",738,"3,214","3,516",326,"1,153",34,98,435,820,"3,162",23,"6,301","6,100"
809,Sobrance,52,"18,271","10,378",5,"10,369","10,189",83,54,25,72,463,289,5,"1,415",115,503,10,44,864,156,733,38,"5,199",121
810,Spišská Nová Ves,83,"71,111","38,064",106,"37,926","37,397",320,242,411,243,"4,672",932,17,"1,644",344,"1,951",46,71,"4,298","1,699","5,597",38,"14,027",845
811,Trebišov,126,"81,619","42,604",53,"42,509","41,688",499,242,213,184,"2,623",910,"6,275","2,995",313,"1,059",59,134,"2,928",426,"4,258",111,"13,158","5,301"